          _____                            _____                            _____                            _____          
         /\    \                          /\    \                          /\    \                          /\    \         
        /::\    \                        /::\____\                        /::\    \                        /::\    \        
       /::::\    \                      /::::|   |                       /::::\    \                      /::::\    \       
      /::::::\    \                    /:::::|   |                      /::::::\    \                    /::::::\    \      
     /:::/\:::\    \                  /::::::|   |                     /:::/\:::\    \                  /:::/\:::\    \     
    /:::/  \:::\    \                /:::/|::|   |                    /:::/__\:::\    \                /:::/  \:::\    \    
   /:::/    \:::\    \              /:::/ |::|   |                   /::::\   \:::\    \              /:::/    \:::\    \   
  /:::/    / \:::\    \            /:::/  |::|___|______            /::::::\   \:::\    \            /:::/    / \:::\    \  
 /:::/    /   \:::\ ___\          /:::/   |::::::::\    \          /:::/\:::\   \:::\    \          /:::/    /   \:::\    \ 
/:::/____/  ___\:::|    |        /:::/    |:::::::::\____\        /:::/  \:::\   \:::\____\        /:::/____/     \:::\____\
\:::\    \ /\  /:::|____|        \::/    / ~~~~~/:::/    /        \::/    \:::\  /:::/    /        \:::\    \      \::/    /
 \:::\    /::\ \::/    /          \/____/      /:::/    /          \/____/ \:::\/:::/    /          \:::\    \      \/____/ 
  \:::\   \:::\ \/____/                       /:::/    /                    \::::::/    /            \:::\    \             
   \:::\   \:::\____\                        /:::/    /                      \::::/    /              \:::\    \            
    \:::\  /:::/    /                       /:::/    /                       /:::/    /                \:::\    \           
     \:::\/:::/    /                       /:::/    /                       /:::/    /                  \:::\    \          
      \::::::/    /                       /:::/    /                       /:::/    /                    \:::\    \         
       \::::/    /                       /:::/    /                       /:::/    /                      \:::\____\        
        \::/____/                        \::/    /                        \::/    /                        \::/    /        
                                          \/____/                          \/____/                          \/____/         
                                                                                                                            